…
# read_ndr(file_path)

### read line-list available on the internet
path <- "https://raw.githubusercontent.com/stephenbalogun/example_files/main/ndr_example.csv"

ndr_example <- read_ndr(path)
```

### Treatment Indicators

``` r
## Subset "TX_NEW"
tx_new(ndr_example)
#> # A tibble: 4,398 x 48
#>    ip    state lga   facility datim_code sex   patient_identif~ hospital_number
#>    <fct> <fct> <fct> <fct>    <fct>      <fct> <chr>            <chr>          
#>  1 IP_n~ Stat~ LGA0~ Facilit~ datim_cod~ F     State 3006       0002           
#>  2 IP_n~ Stat~ LGA0~ Facilit~ datim_cod~ F     State 2008       0003           
#>  3 IP_n~ Stat~ LGA0~ Facilit~ datim_cod~ M     State 30015      0004           
#>  4 IP_n~ Stat~ LGA0~ Facilit~ datim_cod~ M     State 30033      0008           
#>  5 IP_n~ Stat~ LGA0~ Facilit~ datim_cod~ M     State 30040      00012          
#>  6 IP_n~ Stat~ LGA0~ Facilit~ datim_cod~ M     State 30044      00013          
#>  7 IP_n~ Stat~ LGA0~ Facilit~ datim_cod~ M     State 30046      00015          
#>  8 IP_n~ Stat~ LGA0~ Facilit~ datim_cod~ M     State 30049      00017          
#>  9 IP_n~ Stat~ LGA0~ Facilit~ datim_cod~ M     State 30051      00014          
#> 10 IP_n~ Stat~ LGA0~ Facilit~ datim_cod~ F     State 20038      00016          
#> # ... with 4,388 more rows, and 40 more variables: date_of_birth <date>,
#> #   age_at_art_initiation <dbl>, current_age <dbl>, art_start_date <date>,
#> #   art_start_date_source <fct>, last_drug_pickup_date <date>,
#> #   last_drug_pickup_date_q1 <date>, last_drug_pickup_date_q2 <date>,
#> #   last_drug_pickup_date_q3 <date>, last_drug_pickup_date_q4 <date>,
#> #   last_regimen <fct>, last_clinic_visit_date <date>,
#> #   days_of_arv_refill <dbl>, pregnancy_status <fct>, current_viral_load <dbl>,
#> #   date_of_current_viral_load <date>, current_viral_load_q1 <dbl>,
#> #   date_of_current_viral_load_q1 <date>, current_viral_load_q2 <dbl>,
…
## Subset "TX_CURR" for a state
ndr_example %>%
  tx_curr(state = "State 1")
#> # A tibble: 29,198 x 48
#>    ip    state lga   facility datim_code sex   patient_identif~ hospital_number
#>    <fct> <fct> <fct> <fct>    <fct>      <fct> <chr>            <chr>          
#>  1 IP_n~ Stat~ LGA0~ Facilit~ datim_cod~ F     State 3001       0001           
#>  2 IP_n~ Stat~ LGA0~ Facilit~ datim_cod~ F     State 2001       0001           
#>  3 IP_n~ Stat~ LGA0~ Facilit~ datim_cod~ M     State 1002       0001           
#>  4 IP_n~ Stat~ LGA0~ Facilit~ datim_cod~ F     State 3004       0003           
#>  5 IP_n~ Stat~ LGA0~ Facilit~ datim_cod~ F     State 2005       0002           
#>  6 IP_n~ Stat~ LGA0~ Facilit~ datim_cod~ F     State 3006       0002           
#>  7 IP_n~ Stat~ LGA0~ Facilit~ datim_cod~ F     State 1003       0002           
#>  8 IP_n~ Stat~ LGA0~ Facilit~ datim_cod~ F     State 2008       0003           
#>  9 IP_n~ Stat~ LGA0~ Facilit~ datim_cod~ F     State 3007       0001           
#> 10 IP_n~ Stat~ LGA0~ Facilit~ datim_cod~ M     State 3008       0003           
#> # ... with 29,188 more rows, and 40 more variables: date_of_birth <date>,
#> #   age_at_art_initiation <dbl>, current_age <dbl>, art_start_date <date>,
#> #   art_start_date_source <fct>, last_drug_pickup_date <date>,
#> #   last_drug_pickup_date_q1 <date>, last_drug_pickup_date_q2 <date>,
#> #   last_drug_pickup_date_q3 <date>, last_drug_pickup_date_q4 <date>,
#> #   last_regimen <fct>, last_clinic_visit_date <date>,
#> #   days_of_arv_refill <dbl>, pregnancy_status <fct>, current_viral_load <dbl>,
#> #   date_of_current_viral_load <date>, current_viral_load_q1 <dbl>,
#> #   date_of_current_viral_load_q1 <date>, current_viral_load_q2 <dbl>,
…
## Generate line-list of clients with medication refill in January 2021 for a facility (Facility 1)
ndr_example %>%
  tx_appointment(from = "2021-01-01",
                 to = "2021-01-31",
                 facility = "Facility 1")
#> # A tibble: 2,380 x 49
#>    ip    state lga   facility datim_code sex   patient_identif~ hospital_number
#>    <fct> <fct> <fct> <fct>    <fct>      <fct> <chr>            <chr>          
#>  1 IP_n~ Stat~ LGA0~ Facilit~ datim_cod~ F     State 1003       0002           
#>  2 IP_n~ Stat~ LGA0~ Facilit~ datim_cod~ F     State 20011      0005           
#>  3 IP_n~ Stat~ LGA0~ Facilit~ datim_cod~ F     State 20012      0006           
#>  4 IP_n~ Stat~ LGA0~ Facilit~ datim_cod~ F     State 20023      0002           
#>  5 IP_n~ Stat~ LGA0~ Facilit~ datim_cod~ F     State 10017      0005           
#>  6 IP_n~ Stat~ LGA0~ Facilit~ datim_cod~ M     State 30044      00013          
#>  7 IP_n~ Stat~ LGA0~ Facilit~ datim_cod~ M     State 30046      00015          
#>  8 IP_n~ Stat~ LGA0~ Facilit~ datim_cod~ M     State 30049      00017          
#>  9 IP_n~ Stat~ LGA0~ Facilit~ datim_cod~ F     State 30061      0003           
#> 10 IP_n~ Stat~ LGA0~ Facilit~ datim_cod~ M     State 10035      00014          
#> # ... with 2,370 more rows, and 41 more variables: date_of_birth <date>,
#> #   age_at_art_initiation <dbl>, current_age <dbl>, art_start_date <date>,
#> #   art_start_date_source <fct>, last_drug_pickup_date <date>,
#> #   last_drug_pickup_date_q1 <date>, last_drug_pickup_date_q2 <date>,
#> #   last_drug_pickup_date_q3 <date>, last_drug_pickup_date_q4 <date>,
#> #   last_regimen <fct>, last_clinic_visit_date <date>,
#> #   days_of_arv_refill <dbl>, pregnancy_status <fct>, current_viral_load <dbl>,
#> #   date_of_current_viral_load <date>, current_viral_load_q1 <dbl>,
#> #   date_of_current_viral_load_q1 <date>, current_viral_load_q2 <dbl>,
…
## Generate list of clients who were active at the beginning of FY21 but became inactive at the end of Q1 of FY21.
ndr_example %>%
  tx_ml(from = "2020-10-01",
        to = "2020-12-31")
#> # A tibble: 4,020 x 49
#>    ip    state lga   facility datim_code sex   patient_identif~ hospital_number
#>    <fct> <fct> <fct> <fct>    <fct>      <fct> <chr>            <chr>          
#>  1 IP_n~ Stat~ LGA0~ Facilit~ datim_cod~ F     State 2002       0001           
#>  2 IP_n~ Stat~ LGA0~ Facilit~ datim_cod~ F     State 2008       0003           
#>  3 IP_n~ Stat~ LGA0~ Facilit~ datim_cod~ F     State 30020      0001           
#>  4 IP_n~ Stat~ LGA0~ Facilit~ datim_cod~ F     State 20015      0007           
#>  5 IP_n~ Stat~ LGA0~ Facilit~ datim_cod~ F     State 20025      0001           
#>  6 IP_n~ Stat~ LGA0~ Facilit~ datim_cod~ M     State 20033      00014          
#>  7 IP_n~ Stat~ LGA0~ Facilit~ datim_cod~ M     State 20036      00013          
#>  8 IP_n~ Stat~ LGA0~ Facilit~ datim_cod~ M     State 30062      00023          
#>  9 IP_n~ Stat~ LGA0~ Facilit~ datim_cod~ M     State 20049      00021          
#> 10 IP_n~ Stat~ LGA0~ Facilit~ datim_cod~ F     State 20051      00022          
#> # ... with 4,010 more rows, and 41 more variables: date_of_birth <date>,
#> #   age_at_art_initiation <dbl>, current_age <dbl>, art_start_date <date>,
#> #   art_start_date_source <fct>, last_drug_pickup_date <date>,
#> #   last_drug_pickup_date_q1 <date>, last_drug_pickup_date_q2 <date>,
#> #   last_drug_pickup_date_q3 <date>, last_drug_pickup_date_q4 <date>,
#> #   last_regimen <fct>, last_clinic_visit_date <date>,
#> #   days_of_arv_refill <dbl>, pregnancy_status <fct>, current_viral_load <dbl>,
#> #   date_of_current_viral_load <date>, current_viral_load_q1 <dbl>,
#> #   date_of_current_viral_load_q1 <date>, current_viral_load_q2 <dbl>,
…
### Viral Suppression Indicators

``` r
## Generate list of clients who are eligible for VL (i.e. expected to have a documented VL result)
ndr_example %>%
  tx_vl_eligible()
#> # A tibble: 22,456 x 48
#>    ip    state lga   facility datim_code sex   patient_identif~ hospital_number
#>    <fct> <fct> <fct> <fct>    <fct>      <fct> <chr>            <chr>          
#>  1 IP_n~ Stat~ LGA0~ Facilit~ datim_cod~ F     State 3001       0001           
#>  2 IP_n~ Stat~ LGA0~ Facilit~ datim_cod~ F     State 2001       0001           
#>  3 IP_n~ Stat~ LGA0~ Facilit~ datim_cod~ M     State 1002       0001           
#>  4 IP_n~ Stat~ LGA0~ Facilit~ datim_cod~ F     State 3004       0003           
#>  5 IP_n~ Stat~ LGA0~ Facilit~ datim_cod~ F     State 2005       0002           
#>  6 IP_n~ Stat~ LGA0~ Facilit~ datim_cod~ F     State 1003       0002           
#>  7 IP_n~ Stat~ LGA0~ Facilit~ datim_cod~ F     State 3007       0001           
#>  8 IP_n~ Stat~ LGA0~ Facilit~ datim_cod~ M     State 3008       0003           
#>  9 IP_n~ Stat~ LGA0~ Facilit~ datim_cod~ M     State 3009       0004           
#> 10 IP_n~ Stat~ LGA0~ Facilit~ datim_cod~ F     State 1004       0003           
#> # ... with 22,446 more rows, and 40 more variables: date_of_birth <date>,
#> #   age_at_art_initiation <dbl>, current_age <dbl>, art_start_date <date>,
#> #   art_start_date_source <fct>, last_drug_pickup_date <date>,
#> #   last_drug_pickup_date_q1 <date>, last_drug_pickup_date_q2 <date>,
#> #   last_drug_pickup_date_q3 <date>, last_drug_pickup_date_q4 <date>,
#> #   last_regimen <fct>, last_clinic_visit_date <date>,
#> #   days_of_arv_refill <dbl>, pregnancy_status <fct>, current_viral_load <dbl>,
#> #   date_of_current_viral_load <date>, current_viral_load_q1 <dbl>,
#> #   date_of_current_viral_load_q1 <date>, current_viral_load_q2 <dbl>,
…
## Generate list of clients that will be expected to have a viral load result by the end of Q2 of FY21 for "State 2"
ndr_example %>%
  tx_vl_eligible("2021-03-31", state = "State 2")
#> # A tibble: 24,814 x 48
#>    ip    state lga   facility datim_code sex   patient_identif~ hospital_number
#>    <fct> <fct> <fct> <fct>    <fct>      <fct> <chr>            <chr>          
#>  1 IP_n~ Stat~ LGA0~ Facilit~ datim_cod~ F     State 3001       0001           
#>  2 IP_n~ Stat~ LGA0~ Facilit~ datim_cod~ F     State 2001       0001           
#>  3 IP_n~ Stat~ LGA0~ Facilit~ datim_cod~ M     State 1002       0001           
#>  4 IP_n~ Stat~ LGA0~ Facilit~ datim_cod~ F     State 3004       0003           
#>  5 IP_n~ Stat~ LGA0~ Facilit~ datim_cod~ F     State 2005       0002           
#>  6 IP_n~ Stat~ LGA0~ Facilit~ datim_cod~ F     State 1003       0002           
#>  7 IP_n~ Stat~ LGA0~ Facilit~ datim_cod~ F     State 3007       0001           
#>  8 IP_n~ Stat~ LGA0~ Facilit~ datim_cod~ M     State 3008       0003           
#>  9 IP_n~ Stat~ LGA0~ Facilit~ datim_cod~ M     State 3009       0004           
#> 10 IP_n~ Stat~ LGA0~ Facilit~ datim_cod~ F     State 1004       0003           
#> # ... with 24,804 more rows, and 40 more variables: date_of_birth <date>,
#> #   age_at_art_initiation <dbl>, current_age <dbl>, art_start_date <date>,
#> #   art_start_date_source <fct>, last_drug_pickup_date <date>,
#> #   last_drug_pickup_date_q1 <date>, last_drug_pickup_date_q2 <date>,
#> #   last_drug_pickup_date_q3 <date>, last_drug_pickup_date_q4 <date>,
#> #   last_regimen <fct>, last_clinic_visit_date <date>,
#> #   days_of_arv_refill <dbl>, pregnancy_status <fct>, current_viral_load <dbl>,
#> #   date_of_current_viral_load <date>, current_viral_load_q1 <dbl>,
#> #   date_of_current_viral_load_q1 <date>, current_viral_load_q2 <dbl>,
…
For all the ‘Treatment’ and ‘Viral Suppression’ indicators (except
`tx_ml_outcomes()`, which should be use with `tx_ml()`), you have
control over the level of action (state or facility) by supplying to the
`state` and/or `facility` arguments the values of interest . For more
than one state or facility, combine the values with the `c()` with each
one in quotation and separated by a comma e.g.

``` r
## subset clients that have medication appointment in Q2 of FY21 for "State 1" and "State 3" and are also due for viral load
ndr_example %>%
  tx_appointment(from = "2021-01-01",
                 to = "2021-03-31",
                 state = c("State 1", "State 3")) %>%
  tx_vl_eligible(sample = TRUE)
#> # A tibble: 518 x 49
#>    ip    state lga   facility datim_code sex   patient_identif~ hospital_number
#>    <fct> <fct> <fct> <fct>    <fct>      <fct> <chr>            <chr>          
#>  1 IP_n~ Stat~ LGA0~ Facilit~ datim_cod~ F     State 1003       0002           
#>  2 IP_n~ Stat~ LGA0~ Facilit~ datim_cod~ F     State 20061      0004           
#>  3 IP_n~ Stat~ LGA0~ Facilit~ datim_cod~ F     State 30098      00034          
#>  4 IP_n~ Stat~ LGA0~ Facilit~ datim_cod~ M     State 10050      00017          
#>  5 IP_n~ Stat~ LGA0~ Facilit~ datim_cod~ F     State 10052      00024          
#>  6 IP_n~ Stat~ LGA0~ Facilit~ datim_cod~ F     State 300126     00047          
#>  7 IP_n~ Stat~ LGA0~ Facilit~ datim_cod~ F     State 300146     00054          
#>  8 IP_n~ Stat~ LGA0~ Facilit~ datim_cod~ F     State 10089      00029          
#>  9 IP_n~ Stat~ LGA0~ Facilit~ datim_cod~ M     State 300200     00066          
#> 10 IP_n~ Stat~ LGA0~ Facilit~ datim_cod~ F     State 100137     00061          
#> # ... with 508 more rows, and 41 more variables: date_of_birth <date>,
#> #   age_at_art_initiation <dbl>, current_age <dbl>, art_start_date <date>,
#> #   art_start_date_source <fct>, last_drug_pickup_date <date>,
#> #   last_drug_pickup_date_q1 <date>, last_drug_pickup_date_q2 <date>,
#> #   last_drug_pickup_date_q3 <date>, last_drug_pickup_date_q4 <date>,
#> #   last_regimen <fct>, last_clinic_visit_date <date>,
#> #   days_of_arv_refill <dbl>, pregnancy_status <fct>, current_viral_load <dbl>,
#> #   date_of_current_viral_load <date>, current_viral_load_q1 <dbl>,
#> #   date_of_current_viral_load_q1 <date>, current_viral_load_q2 <dbl>,
…
